Project 1
…
# number of episodes of Grey's Anatomy watched
ProjectData %>% filter(grepl("Grey", Title)) %>% summarize(Episodes_of_Greys = n_distinct(Title))

## # A tibble: 1 x 1
##   Episodes_of_Greys
##               <int>
## 1               175

# Max number of titles watched in a day
ProjectData %>% group_by(Date) %>% summarize(Titles_Watched = n_distinct(Title)) %>% 
    arrange(desc(Titles_Watched))

## # A tibble: 288 x 2
##    Date       Titles_Watched
##    <chr>               <int>
##  1 2016-08-16             16
##  2 2015-10-10             13
##  3 2016-08-15             13
##  4 2017-07-17             11
##  5 2016-07-31             10
##  6 2016-08-01             10
##  7 2017-02-12             10
##  8 2015-03-22              9
##  9 2015-10-11              9
## 10 2016-06-08              9
## # … with 278 more rows

# Temperature range
ProjectData %>% select(Date, TempHighF, TempAvgF, TempLowF) %>% 
    mutate(TempRangeF = TempHighF - TempLowF) %>% group_by(Date) %>% 
    summarize(DailyTempRange = mean(TempRangeF)) %>% arrange(desc(DailyTempRange))

## # A tibble: 288 x 2
##    Date       DailyTempRange
##    <chr>               <dbl>
##  1 2014-03-02             45
##  2 2017-04-03             41
##  3 2017-05-01             40
##  4 2014-04-09             39
##  5 2016-01-28             39
##  6 2016-01-29             38
##  7 2014-12-29             37
##  8 2015-12-27             37
##  9 2014-03-18             36
## 10 2017-02-22             36
## # … with 278 more rows
…
ProjectData %>% group_by(Events) %>% mutate_at(c("HumidityAvgPercent"), 
    as.numeric) %>% summarize(mean_temp = mean(TempAvgF, na.rm = T), 
    sd_temp = sd(TempAvgF, na.rm = T), med_temp = median(TempAvgF, 
        na.rm = T), mean_humidity = mean(HumidityAvgPercent, 
        na.rm = T), sd_humidity = sd(HumidityAvgPercent, na.rm = T), 
    med_humidity = median(HumidityAvgPercent, na.rm = T)) %>% 
    pivot_longer(c("mean_temp", "sd_temp", "med_temp", "mean_humidity", 
        "sd_humidity", "med_humidity"), names_to = "SummaryStats", 
        values_to = "Value")

## # A tibble: 42 x 3
##    Events SummaryStats  Value
##    <fct>  <chr>         <dbl>
##  1 " "    mean_temp     71.6 
##  2 " "    sd_temp       15.0 
##  3 " "    med_temp      74   
##  4 " "    mean_humidity 35.9 
##  5 " "    sd_humidity    9.95
##  6 " "    med_humidity  37   
##  7 Fog    mean_temp     61.2 
##  8 Fog    sd_temp       11.3 
##  9 Fog    med_temp      67   
## 10 Fog    mean_humidity 46.9 
## # … with 32 more rows

# Average temperature grouped by Date and Type
ProjectData %>% select(Date, Type, TempAvgF) %>% group_by(Date, 
    Type) %>% summarize(mean_temp = mean(TempAvgF, na.rm = T)) %>% 
    arrange(desc(mean_temp))

## # A tibble: 314 x 3
## # Groups:   Date [288]
##    Date       Type  mean_temp
##    <chr>      <chr>     <dbl>
##  1 2016-08-10 TV           92
##  2 2016-08-12 TV           92
##  3 2016-08-09 TV           91
##  4 2017-07-21 TV           91
##  5 2017-07-25 TV           91
##  6 2017-07-26 Movie        91
##  7 2017-07-26 TV           91
##  8 2016-08-11 TV           90
##  9 2017-07-13 Movie        90
## 10 2017-07-13 TV           90
## # … with 304 more rows
…
